{"hits":[{"id":"DO232761","projectId":"PBCA-US","primarySite":"Brain","ssmCount":1378562,"ssmAffectedGenes":56205,"cnsmExists":false,"stsmExists":false,"sgvExists":false,"methSeqExists":false,"methArrayExists":false,"expSeqExists":false,"expArrayExists":false,"pexpExists":false,"mirnaSeqExists":false,"jcnExists":false,"ageAtDiagnosis":3,"ageAtDiagnosisGroup":"1 - 9","survivalTime":2992,"diseaseStatusLastFollowup":"stable","gender":"male","vitalStatus":"alive","availableDataTypes":["ssm"],"analysisTypes":["WGS"],"studies":[],"state":"live"},{"id":"DO232224","projectId":"PBCA-US","primarySite":"Brain","ssmCount":1015534,"ssmAffectedGenes":55338,"cnsmExists":false,"stsmExists":false,"sgvExists":false,"methSeqExists":false,"methArrayExists":false,"expSeqExists":true,"expArrayExists":false,"pexpExists":false,"mirnaSeqExists":false,"jcnExists":false,"ageAtDiagnosis":7,"ageAtDiagnosisGroup":"1 - 9","survivalTime":547,"relapseType":"distant recurrence/metastasis","diseaseStatusLastFollowup":"no evidence of disease","gender":"female","vitalStatus":"deceased","availableDataTypes":["ssm","exp_seq"],"analysisTypes":["RNA-Seq","WGS"],"studies":[],"state":"live"},{"id":"DO222843","projectId":"MELA-AU","primarySite":"Skin","ssmCount":964360,"ssmAffectedGenes":51565,"cnsmExists":false,"stsmExists":true,"sgvExists":false,"methSeqExists":false,"methArrayExists":false,"expSeqExists":false,"expArrayExists":false,"pexpExists":false,"mirnaSeqExists":false,"jcnExists":false,"ageAtDiagnosis":76,"ageAtDiagnosisGroup":"70 - 79","survivalTime":907,"gender":"male","vitalStatus":"deceased","tumourStageAtDiagnosis":"IIC","availableDataTypes":["ssm","stsm"],"analysisTypes":["WGS"],"studies":[],"state":"live"},{"id":"DO222837","projectId":"MELA-AU","primarySite":"Skin","ssmCount":786166,"ssmAffectedGenes":49858,"cnsmExists":false,"stsmExists":true,"sgvExists":false,"methSeqExists":false,"methArrayExists":false,"expSeqExists":false,"expArrayExists":false,"pexpExists":false,"mirnaSeqExists":false,"jcnExists":false,"ageAtDiagnosis":82,"ageAtDiagnosisGroup":"80 - 89","survivalTime":1110,"gender":"male","vitalStatus":"deceased","tumourStageAtDiagnosis":"IIB","availableDataTypes":["ssm","stsm"],"analysisTypes":["WGS"],"studies":[],"state":"live"},{"id":"DO50970","projectId":"LICA-FR","primarySite":"Liver","ssmCount":610827,"ssmAffectedGenes":48874,"cnsmExists":false,"stsmExists":false,"sgvExists":false,"methSeqExists":false,"methArrayExists":false,"expSeqExists":true,"expArrayExists":false,"pexpExists":false,"mirnaSeqExists":false,"jcnExists":false,"ageAtDiagnosis":72,"ageAtDiagnosisGroup":"70 - 79","gender":"female","availableDataTypes":["ssm","exp_seq"],"analysisTypes":["WGS","WXS","RNA-Seq"],"studies":[],"state":"live"},{"id":"DO222363","projectId":"MELA-AU","primarySite":"Skin","ssmCount":775848,"ssmAffectedGenes":47839,"cnsmExists":false,"stsmExists":true,"sgvExists":false,"methSeqExists":false,"methArrayExists":false,"expSeqExists":false,"expArrayExists":false,"pexpExists":false,"mirnaSeqExists":false,"jcnExists":false,"ageAtDiagnosis":81,"ageAtDiagnosisGroup":"80 - 89","survivalTime":154,"gender":"male","vitalStatus":"deceased","tumourStageAtDiagnosis":"IIC","availableDataTypes":["ssm","stsm"],"analysisTypes":["WGS"],"studies":[],"state":"live"},{"id":"DO220886","projectId":"MELA-AU","primarySite":"Skin","ssmCount":530806,"ssmAffectedGenes":46681,"cnsmExists":false,"stsmExists":true,"sgvExists":false,"methSeqExists":false,"methArrayExists":false,"expSeqExists":false,"expArrayExists":false,"pexpExists":false,"mirnaSeqExists":false,"jcnExists":false,"ageAtDiagnosis":56,"ageAtDiagnosisGroup":"50 - 59","survivalTime":7730,"gender":"male","vitalStatus":"alive","tumourStageAtDiagnosis":"IA/IB","availableDataTypes":["ssm","stsm"],"analysisTypes":["WGS"],"studies":["PCAWG"],"state":"live"},{"id":"DO220877","projectId":"MELA-AU","primarySite":"Skin","ssmCount":928259,"ssmAffectedGenes":46246,"cnsmExists":false,"stsmExists":true,"sgvExists":false,"methSeqExists":false,"methArrayExists":false,"expSeqExists":false,"expArrayExists":false,"pexpExists":false,"mirnaSeqExists":false,"jcnExists":false,"ageAtDiagnosis":25,"ageAtDiagnosisGroup":"20 - 29","survivalTime":427,"gender":"male","vitalStatus":"alive","tumourStageAtDiagnosis":"IV","availableDataTypes":["ssm","stsm"],"analysisTypes":["WGS"],"studies":["PCAWG"],"state":"live"},{"id":"DO222875","projectId":"MELA-AU","primarySite":"Skin","ssmCount":819954,"ssmAffectedGenes":45993,"cnsmExists":false,"stsmExists":true,"sgvExists":false,"methSeqExists":false,"methArrayExists":false,"expSeqExists":false,"expArrayExists":false,"pexpExists":false,"mirnaSeqExists":false,"jcnExists":false,"ageAtDiagnosis":79,"ageAtDiagnosisGroup":"70 - 79","survivalTime":1192,"gender":"male","vitalStatus":"alive","tumourStageAtDiagnosis":"IIA","availableDataTypes":["ssm","stsm"],"analysisTypes":["WGS"],"studies":[],"state":"live"},{"id":"DO229446","projectId":"SKCA-BR","primarySite":"Skin","ssmCount":665096,"ssmAffectedGenes":45747,"cnsmExists":true,"stsmExists":true,"sgvExists":false,"methSeqExists":false,"methArrayExists":false,"expSeqExists":false,"expArrayExists":false,"pexpExists":false,"mirnaSeqExists":false,"jcnExists":false,"ageAtDiagnosis":59,"ageAtDiagnosisGroup":"50 - 59","survivalTime":1570,"relapseType":"distant recurrence/metastasis","diseaseStatusLastFollowup":"progression","gender":"male","vitalStatus":"deceased","tumourStageAtDiagnosis":"2","availableDataTypes":["cnsm","ssm","stsm"],"analysisTypes":["WGS"],"studies":[],"state":"live"}],"facets":{"relapseType":{"type":"terms","missing":21727,"total":2562,"terms":[{"term":"distant recurrence/metastasis","count":876},{"term":"progression (liquid tumours)","count":863},{"term":"local recurrence","count":756},{"term":"local recurrence and distant metastasis","count":67}]},"gender":{"type":"terms","missing":298,"total":23991,"terms":[{"term":"male","count":13135},{"term":"female","count":10856}]},"tumourStageAtDiagnosis":{"type":"terms","missing":15830,"total":8459,"terms":[{"term":"Stage 4","count":806},{"term":"A","count":456},{"term":"2","count":344},{"term":"T1c","count":333},{"term":"III","count":303},{"term":"T2N0M0","count":292},{"term":"3","count":281},{"term":"T1N0M0","count":281},{"term":"T3N0M0","count":268},{"term":"1","count":262},{"term":"T3N1M0","count":247},{"term":"I","count":235},{"term":"II","count":203},{"term":"N/A","count":181},{"term":"T2a","count":163},{"term":"T3N2M0","count":125},{"term":"M0","count":122},{"term":"4A","count":115},{"term":"T2N1M0","count":112},{"term":"4","count":99},{"term":"G2","count":93},{"term":"Stage 3","count":92},{"term":"Stage 1","count":90},{"term":"IIB","count":88},{"term":"T4N0M0","count":84},{"term":"unknown","count":80},{"term":"T1cNxMx","count":78},{"term":"T2b","count":76},{"term":"IV","count":67},{"term":"T4N1M0","count":67},{"term":"IB","count":66},{"term":"Non-metastatic stage","count":64},{"term":"TxNxM0","count":60},{"term":"Stage 4s","count":54},{"term":"B","count":52},{"term":"M3","count":52},{"term":"T1N1M0","count":50},{"term":"IIA","count":47},{"term":"G1","count":43},{"term":"Metastatic stage","count":41},{"term":"T2cN0M0","count":40},{"term":"T3bN0M0","count":40},{"term":"Stage 2b","count":36},{"term":"III,N","count":35},{"term":"T4N2M0","count":35},{"term":"cT4aN1","count":33},{"term":"T2N2M0","count":29},{"term":"TxNxM+","count":29},{"term":"cT4aN0","count":28},{"term":"T3aN0M0","count":27},{"term":"II,N","count":26},{"term":"T3N3M0","count":26},{"term":"3B","count":25},{"term":"IV,N,E","count":25},{"term":"M1","count":25},{"term":"Stage 2a","count":25},{"term":"T2cN0Mx","count":25},{"term":"IIIB","count":24},{"term":"TNM","count":24},{"term":"TxNxMx","count":24},{"term":"IA","count":23},{"term":"I,N","count":22},{"term":"T3N1M1","count":22},{"term":"IIC","count":21},{"term":"IIIA","count":21},{"term":"T2aN0Mx","count":21},{"term":"Unknown","count":20},{"term":"T3N0M1","count":19},{"term":"T3N2M1","count":19},{"term":"T4N0","count":19},{"term":"IIIC","count":18},{"term":"IVA","count":18},{"term":"cT4aN2b","count":18},{"term":"C","count":16},{"term":"2B","count":15},{"term":"IV-A","count":15},{"term":"M2","count":15},{"term":"T4N0M1","count":15},{"term":"pT2N0M0","count":15},{"term":"III/IV","count":14},{"term":"T2c","count":14},{"term":"T4N3M0","count":14},{"term":"T1cN0M0","count":13},{"term":"T4N1M1","count":13},{"term":"cT4aN2a","count":13},{"term":"IV,N","count":12},{"term":"T2aNxMx","count":12},{"term":"T4aN0M0","count":12},{"term":"2A","count":11},{"term":"3A","count":11},{"term":"B-ALL","count":11},{"term":"IV,N,S,E","count":11},{"term":"T3N1Mx","count":11},{"term":"T4N2M1","count":11},{"term":"G3","count":10},{"term":"IB or IIB","count":10},{"term":"T3aN0Mx","count":10},{"term":"ll","count":10},{"term":"III,N,S","count":9},{"term":"IV-C","count":9},{"term":"T1cN0Mx","count":9},{"term":"T2NxMx","count":9},{"term":"T3aNxMx","count":9},{"term":"T4N2","count":9},{"term":"T1NXM0","count":8},{"term":"T2N0","count":8},{"term":"T3N0","count":8},{"term":"0","count":7},{"term":"I,E","count":7},{"term":"IV,E","count":7},{"term":"T2N3M0","count":7},{"term":"T2bN0Mx","count":7},{"term":"T4aN1M0","count":7},{"term":"TxN0M0","count":7},{"term":"pT1cN0Mx","count":7},{"term":"IV,S,E","count":6},{"term":"T1bN0M0","count":6},{"term":"T2aN0M0","count":6},{"term":"T4aN0","count":6},{"term":"T4aN2b","count":6},{"term":"TaN0M0","count":6},{"term":"pT2,pN0,pMx","count":6},{"term":"pT2,pN1a,pMx","count":6},{"term":"pT2pN0Mx","count":6},{"term":"1A","count":5},{"term":"IE","count":5},{"term":"IIE","count":5},{"term":"IV,N,S","count":5},{"term":"T2N2","count":5},{"term":"T3N1M","count":5},{"term":"T3N2M","count":5},{"term":"T4N1","count":5},{"term":"T4aN0M1","count":5},{"term":"TxN1M0","count":5},{"term":"UNKNOWN","count":5},{"term":"pT1N0M0","count":5},{"term":"pT2,pN2a,pMx","count":5},{"term":"pT2N1M0","count":5},{"term":"1B","count":4},{"term":"II,N,E","count":4},{"term":"III,E","count":4},{"term":"III,N,E","count":4},{"term":"III,S","count":4},{"term":"ND","count":4},{"term":"T1/N0/M0","count":4},{"term":"T2bNxMx","count":4},{"term":"T2cNxMx","count":4},{"term":"T3N0MX","count":4},{"term":"T3N0Mx","count":4},{"term":"T3N1MX","count":4},{"term":"T3NOMO","count":4},{"term":"T4aN2bM0","count":4},{"term":"cT3N1","count":4},{"term":"l","count":4},{"term":"pT1c,pN0,pMx","count":4},{"term":"pT1cN0M0","count":4},{"term":"IA/IB","count":3},{"term":"IAE","count":3},{"term":"IB/IIA","count":3},{"term":"IIAE","count":3},{"term":"T0N0M0","count":3},{"term":"T1N0","count":3},{"term":"T1N2M0","count":3},{"term":"T1N3M0","count":3},{"term":"T1b","count":3},{"term":"T1c_N0","count":3},{"term":"T1c_pN0_MX","count":3},{"term":"T2/N1/M0","count":3},{"term":"T2N0MX","count":3},{"term":"T2N0Mx","count":3},{"term":"T2N1","count":3},{"term":"T2bN0M0","count":3},{"term":"T3/N0/M0","count":3},{"term":"T3N0M","count":3},{"term":"T3N0M1a","count":3},{"term":"T3N1aM1a","count":3},{"term":"T3N3M1","count":3},{"term":"T3NXM1","count":3},{"term":"T3a","count":3},{"term":"T3bNxMx","count":3},{"term":"T4N3M1","count":3},{"term":"T4NIMO","count":3},{"term":"T4aN0M1a","count":3},{"term":"T4aN1","count":3},{"term":"T4aN1bM0","count":3},{"term":"T4aN1bM1b","count":3},{"term":"T4aN2a","count":3},{"term":"pT1c,pN0(sn),pMx","count":3},{"term":"pT1cN0","count":3},{"term":"pT3,pN2a,pMx","count":3},{"term":"4B","count":2},{"term":"I-III","count":2},{"term":"II,N,S","count":2},{"term":"IIA/IIB","count":2},{"term":"III,N,S,E","count":2},{"term":"IIIB/IV","count":2},{"term":"IVB","count":2},{"term":"T1N1","count":2},{"term":"T1aNxM","count":2},{"term":"T1bN0Mx","count":2},{"term":"T1b_pN0(sn)_MX","count":2},{"term":"T2(m)N0M0","count":2},{"term":"T2-3N0M0","count":2},{"term":"T2/N0/M0","count":2},{"term":"T2/N2/M0","count":2},{"term":"T2N0M1","count":2},{"term":"T2N0MO","count":2},{"term":"T2NXMX","count":2},{"term":"T2__pN1Biv_MX","count":2},{"term":"T2_pN0_MX","count":2},{"term":"T2_pN0_MX_","count":2},{"term":"T2_pN1_MX","count":2},{"term":"T2cN1M0","count":2},{"term":"T2pN0MX","count":2},{"term":"T3/N1/M0","count":2},{"term":"T3N1bM0","count":2},{"term":"T3N2MO","count":2},{"term":"T3N2aM1a","count":2},{"term":"T3N2bM0","count":2},{"term":"T3N3M","count":2},{"term":"T3NM0","count":2},{"term":"T3NXM0","count":2},{"term":"T3NxM0","count":2},{"term":"T3NxMx","count":2},{"term":"T3aN1M0","count":2},{"term":"T3bN1M0","count":2},{"term":"T4 Nx","count":2},{"term":"T4NXMX","count":2},{"term":"T4aN1CM0","count":2},{"term":"T4aN2aM0","count":2},{"term":"T4aNI","count":2},{"term":"T4bN1bM0","count":2},{"term":"TN0M0","count":2},{"term":"TN2M0","count":2},{"term":"TNM0","count":2},{"term":"TisN0M0","count":2},{"term":"TxN2M1","count":2},{"term":"X","count":2},{"term":"cT2N0","count":2},{"term":"cT3N0","count":2},{"term":"cT3N2b","count":2},{"term":"pT1bpN0M0","count":2},{"term":"pT1cNoMx","count":2},{"term":"pT1c_N0_(sn)","count":2},{"term":"pT1cpN0M0","count":2},{"term":"pT1cpN1Mx","count":2},{"term":"pT2N0","count":2},{"term":"pT2N0Mx","count":2},{"term":"pT2N1Mx","count":2},{"term":"pT2N2","count":2},{"term":"pT2N2a(sn)","count":2},{"term":"pT2_N0","count":2},{"term":"pT2_N0_(sn)","count":2},{"term":"pT3N1M0","count":2},{"term":"4a","count":1},{"term":"I - III","count":1},{"term":"IA or IIB","count":1},{"term":"IBE","count":1},{"term":"II,E","count":1},{"term":"II/IV","count":1},{"term":"IIBE","count":1},{"term":"IIIA/IIIB","count":1},{"term":"IIIB/V","count":1},{"term":"IIIE","count":1},{"term":"IV,S","count":1},{"term":"IV-B","count":1},{"term":"IV/V","count":1},{"term":"IVAE","count":1},{"term":"T0NxM0","count":1},{"term":"T1/N2/M0","count":1},{"term":"T1/Nx/M0","count":1},{"term":"T1N0M1","count":1},{"term":"T1N0MX","count":1},{"term":"T1NxMx","count":1},{"term":"T1a","count":1},{"term":"T1aN0M0","count":1},{"term":"T1bN0M","count":1},{"term":"T1bN1M0","count":1},{"term":"T1bNxM","count":1},{"term":"T1cN0(sn)","count":1},{"term":"T1cNxM1","count":1},{"term":"T1c_N0_(1+)","count":1},{"term":"T1c_N0_(sn)","count":1},{"term":"T1c_N0_(sn)_w/_multiple_foci_of_invasion","count":1},{"term":"T1c_N0_(sn)_with_multiple_foci_of_invasion","count":1},{"term":"T1c_N0_w/_multiple_foci_of_invasion","count":1},{"term":"T1c_N1","count":1},{"term":"T1c_N1bi","count":1},{"term":"T1c_N2a","count":1},{"term":"T1c_NX","count":1},{"term":"T1c_Nx","count":1},{"term":"T1c_pN0_MX_with_multiple_foci_of_invasion","count":1},{"term":"T1c_pN1a_MX","count":1},{"term":"T2 Nx","count":1},{"term":"T2N0M","count":1},{"term":"T2N1A_(II)","count":1},{"term":"T2N1M0_(primary)","count":1},{"term":"T2N1M1","count":1},{"term":"T2N1MO","count":1},{"term":"T2N1MX","count":1},{"term":"T2N1Mx","count":1},{"term":"T2N1aM0","count":1},{"term":"T2N1bM0","count":1},{"term":"T2N2AM0","count":1},{"term":"T2N2M1","count":1},{"term":"T2N2MX","count":1},{"term":"T2N3MO","count":1},{"term":"T2NOMO","count":1},{"term":"T2NX","count":1},{"term":"T2NXM0","count":1},{"term":"T2_N0","count":1},{"term":"T2_N0(sn)","count":1},{"term":"T2_N0_(sn)","count":1},{"term":"T2_N0_(sn)_or_T2N2M0","count":1},{"term":"T2_N0_with_multiple_foci_of_invasion","count":1},{"term":"T2_N1mi","count":1},{"term":"T2_pN0_Mx","count":1},{"term":"T2_pN1a_MX","count":1},{"term":"T2_pN1bi_MX","count":1},{"term":"T2_pN1bi_Mx","count":1},{"term":"T2_pN1biv_MX_","count":1},{"term":"T2b pN1","count":1},{"term":"T2bNXMX","count":1},{"term":"T2cN0M1","count":1},{"term":"T2cN1Mx","count":1},{"term":"T2cNxM0","count":1},{"term":"T3 Nx","count":1},{"term":"T3/N2/M0","count":1},{"term":"T3/Nx/M0","count":1},{"term":"T3N0MO","count":1},{"term":"T3N1aM1","count":1},{"term":"T3N1bM1","count":1},{"term":"T3N1bM1a","count":1},{"term":"T3N1cM0","count":1},{"term":"T3N2","count":1},{"term":"T3N2M1a","count":1},{"term":"T3N2aM0","count":1},{"term":"T3N3MO","count":1},{"term":"T3NIMO","count":1},{"term":"T3_N0(i+)","count":1},{"term":"T3_N1a","count":1},{"term":"T3_pN1biii_MX","count":1},{"term":"T3bN0M1","count":1},{"term":"T3bN0Mx","count":1},{"term":"T3bN1Mx","count":1},{"term":"T3pN1aMX","count":1},{"term":"T4/N1/M0","count":1},{"term":"T4DN1Mx","count":1},{"term":"T4N1MI","count":1},{"term":"T4N3MI","count":1},{"term":"T4NOM0","count":1},{"term":"T4NOMO","count":1},{"term":"T4aN1aM0","count":1},{"term":"T4aN1bM1a","count":1},{"term":"T4aN2","count":1},{"term":"T4aN2M1","count":1},{"term":"T4aN2aM1","count":1},{"term":"T4aN2aM1a","count":1},{"term":"T4aN2aM1b","count":1},{"term":"T4bN0M0","count":1},{"term":"T4bN1CM1","count":1},{"term":"T4bN2M0","count":1},{"term":"T4bN2bM0","count":1},{"term":"TN1M0","count":1},{"term":"TNxM0","count":1},{"term":"TxN2M0","count":1},{"term":"TxNxM","count":1},{"term":"cT2N1","count":1},{"term":"cT2N2a","count":1},{"term":"cT2N2b","count":1},{"term":"cT4aN2c","count":1},{"term":"lll","count":1},{"term":"pT1C_N3a","count":1},{"term":"pT1NxM0","count":1},{"term":"pT1b_N1a_(sn)","count":1},{"term":"pT1bpN0Mx","count":1},{"term":"pT1c(m)N0sn","count":1},{"term":"pT1c,pN1a(sn),pMx","count":1},{"term":"pT1c,pN1a,pMx","count":1},{"term":"pT1cN0(i-)(sn)M0","count":1},{"term":"pT1cN0(sn)","count":1},{"term":"pT1cN1","count":1},{"term":"pT1cN1(mi)(sn)","count":1},{"term":"pT1cN1M0","count":1},{"term":"pT1cN1Mx","count":1},{"term":"pT1cN1a","count":1},{"term":"pT1cN2","count":1},{"term":"pT1cpN0Mx","count":1},{"term":"pT1cpN1M0","count":1},{"term":"pT2(2),pN0(sn),pMx","count":1},{"term":"pT2,pN0(sn),pMx","count":1},{"term":"pT2,pN1a(2),pMx","count":1},{"term":"pT2,pN1a(sn),pMx","count":1},{"term":"pT2,pN2a(sn),pMx","count":1},{"term":"pT2,pNmi,pNx","count":1},{"term":"pT2N1","count":1},{"term":"pT2N1(mi)M0","count":1},{"term":"pT2N1(mi)Mx","count":1},{"term":"pT2N1mi(sn)M0","count":1},{"term":"pT2N3Mx","count":1},{"term":"pT2_N0(sn)","count":1},{"term":"pT2_N0_(i+)","count":1},{"term":"pT2_N0_(sn)_with_multiple_foci_of_invasion","count":1},{"term":"pT2_N1","count":1},{"term":"pT2_N1a","count":1},{"term":"pT2c pN0","count":1},{"term":"pT2pN0M0","count":1},{"term":"pT2pN1M0","count":1},{"term":"pT3 pN0","count":1},{"term":"pT3(m)N0M0","count":1},{"term":"pT3,pN1a,pMx","count":1},{"term":"pT3,pN3a,pMx","count":1},{"term":"pT3,pN3b,pMx","count":1},{"term":"pT3N0","count":1},{"term":"pT3N0(i+)M0","count":1},{"term":"pT3_N1a","count":1},{"term":"pT3_N1a_(sn)","count":1},{"term":"pT3b pN1","count":1},{"term":"pT4 pN1","count":1},{"term":"pT4N1M0","count":1},{"term":"pT4b,pN1a,pMx","count":1},{"term":"pT4b,pN3a,pMx","count":1},{"term":"pT4b_N2a","count":1},{"term":"pT4b_pN2a(sn)","count":1},{"term":"ypT2N1a","count":1}]},"availableDataTypes":{"type":"terms","missing":1959,"total":71522,"terms":[{"term":"ssm","count":19729},{"term":"cnsm","count":13120},{"term":"exp_seq","count":9917},{"term":"meth_array","count":9451},{"term":"mirna_seq","count":8207},{"term":"exp_array","count":3923},{"term":"pexp","count":3241},{"term":"stsm","count":2612},{"term":"sgv","count":1122},{"term":"meth_seq","count":157},{"term":"jcn","count":43}]},"studies":{"type":"terms","missing":21480,"total":2809,"terms":[{"term":"PCAWG","count":2809}]},"state":{"type":"terms","missing":0,"total":24289,"terms":[{"term":"live","count":22330},{"term":"pending","count":1959}]},"analysisTypes":{"type":"terms","missing":2183,"total":51515,"terms":[{"term":"WXS","count":13789},{"term":"non-NGS","count":11392},{"term":"RNA-Seq","count":9920},{"term":"miRNA-Seq","count":8114},{"term":"WGS","count":7274},{"term":"VALIDATION","count":372},{"term":"OTHER","count":327},{"term":"Bisulfite-Seq","count":157},{"term":"WGA","count":99},{"term":"AMPLICON","count":71}]},"primarySite":{"type":"terms","missing":0,"total":24289,"terms":[{"term":"Blood","count":3186},{"term":"Brain","count":2504},{"term":"Breast","count":1970},{"term":"Liver","count":1840},{"term":"Kidney","count":1551},{"term":"Head and neck","count":1505},{"term":"Prostate","count":1419},{"term":"Lung","count":1200},{"term":"Stomach","count":1173},{"term":"Nervous System","count":1105},{"term":"Pancreas","count":1072},{"term":"Colorectal","count":1041},{"term":"Esophagus","count":877},{"term":"Skin","count":753},{"term":"Ovary","count":727},{"term":"Uterus","count":565},{"term":"Bladder","count":515},{"term":"Bone","count":341},{"term":"Gall Bladder","count":310},{"term":"Cervix","count":307},{"term":"Mesenchymal","count":307},{"term":"Nasopharynx","count":21}]},"ageAtDiagnosisGroup":{"type":"terms","missing":1618,"total":22671,"terms":[{"term":"60 - 69","count":5279},{"term":"50 - 59","count":4299},{"term":"70 - 79","count":3674},{"term":"1 - 9","count":2777},{"term":"40 - 49","count":2504},{"term":"10 - 19","count":1536},{"term":"30 - 39","count":1120},{"term":"80 - 89","count":881},{"term":"20 - 29","count":548},{"term":"90 - 99","count":53}]},"diseaseStatusLastFollowup":{"type":"terms","missing":12096,"total":12193,"terms":[{"term":"complete remission","count":6593},{"term":"progression","count":2181},{"term":"stable","count":1324},{"term":"relapse","count":1258},{"term":"no evidence of disease","count":678},{"term":"partial remission","count":159}]},"vitalStatus":{"type":"terms","missing":2938,"total":21351,"terms":[{"term":"alive","count":15448},{"term":"deceased","count":5903}]},"projectName":{"type":"terms","missing":24289},"projectId":{"type":"terms","missing":0,"total":24289,"terms":[{"term":"ALL-US","count":1267},{"term":"NBL-US","count":1105},{"term":"BRCA-US","count":1093},{"term":"PBCA-US","count":649},{"term":"GBM-US","count":595},{"term":"GACA-JP","count":585},{"term":"OV-US","count":584},{"term":"BRCA-EU","count":569},{"term":"PBCA-DE","count":554},{"term":"CLLE-ES","count":551},{"term":"UCEC-US","count":545},{"term":"KIRC-US","count":537},{"term":"HNSC-US","count":528},{"term":"LUAD-US","count":518},{"term":"LGG-US","count":514},{"term":"THCA-US","count":506},{"term":"LUSC-US","count":502},{"term":"PRAD-US","count":500},{"term":"RECA-EU","count":475},{"term":"SKCM-US","count":470},{"term":"ESCA-CN","count":468},{"term":"PACA-AU","count":461},{"term":"COAD-US","count":459},{"term":"STAD-US","count":443},{"term":"BLCA-US","count":412},{"term":"COCA-CN","count":411},{"term":"ESAD-UK","count":409},{"term":"LICA-CN","count":404},{"term":"LINC-JP","count":394},{"term":"PRAD-CA","count":392},{"term":"LIHC-US","count":377},{"term":"LICA-FR","count":369},{"term":"AML-US","count":358},{"term":"PACA-CA","count":317},{"term":"CESC-US","count":307},{"term":"KIRP-US","count":284},{"term":"MALY-DE","count":274},{"term":"LIRI-JP","count":260},{"term":"THCA-SA","count":243},{"term":"SARC-US","count":240},{"term":"BTCA-JP","count":239},{"term":"PRAD-UK","count":226},{"term":"EOPC-DE","count":211},{"term":"LAML-KR","count":205},{"term":"LAML-US","count":200},{"term":"PAAD-US","count":185},{"term":"MELA-AU","count":183},{"term":"ORCA-IN","count":178},{"term":"READ-US","count":171},{"term":"LUSC-KR","count":170},{"term":"BRCA-UK","count":151},{"term":"BOCA-UK","count":145},{"term":"GACA-CN","count":145},{"term":"CMDI-UK","count":138},{"term":"WT-US","count":126},{"term":"PEME-CA","count":112},{"term":"BOCA-FR","count":108},{"term":"BRCA-FR","count":107},{"term":"BLCA-CN","count":103},{"term":"SKCA-BR","count":100},{"term":"OV-AU","count":93},{"term":"LAML-CN","count":89},{"term":"OS-US","count":88},{"term":"GBM-CN","count":80},{"term":"BTCA-SG","count":71},{"term":"LMS-FR","count":67},{"term":"PAEN-AU","count":67},{"term":"KICH-US","count":66},{"term":"PRAD-CN","count":65},{"term":"BRCA-KR","count":50},{"term":"NKTL-SG","count":50},{"term":"OV-CN","count":50},{"term":"THCA-CN","count":50},{"term":"RT-US","count":40},{"term":"DLBC-US","count":38},{"term":"PAEN-IT","count":37},{"term":"LIAD-FR","count":32},{"term":"PRAD-FR","count":25},{"term":"NACA-CN","count":21},{"term":"UTCA-FR","count":20},{"term":"BPLL-FR","count":16},{"term":"CCSK-US","count":13},{"term":"LUSC-CN","count":10},{"term":"RECA-CN","count":10},{"term":"PACA-CN","count":5},{"term":"LIHM-FR","count":4}]}},"pagination":{"count":10,"total":24289,"page":1,"pages":2429,"order":"desc","sort":"ssmAffectedGenes","from":1,"size":10}}
